%YAML 1.1
%TAG !u! tag:unity3d.com,2011:
--- !u!1045 &1
EditorBuildSettings:
  m_ObjectHideFlags: 0
  serializedVersion: 2
  m_Scenes:
  - enabled: 1
    path: Assets/_PROJECTASSETS/Scenes/MainMenu.unity
    guid: e442181de274249e78230ba5901c7e4a
  - enabled: 1
    path: Assets/_PROJECTASSETS/Scenes/Game.unity
    guid: 78860faeb0dbf422bb7a48fb0f39119c
  m_configObjects: {}
